<?xml version="1.0" encoding="UTF-8" standalone="no"?>
<!-- Created with Inkscape (http://www.inkscape.org/) -->

<svg
   xmlns:dc="http://purl.org/dc/elements/1.1/"
   xmlns:cc="http://creativecommons.org/ns#"
   xmlns:rdf="http://www.w3.org/1999/02/22-rdf-syntax-ns#"
   xmlns:svg="http://www.w3.org/2000/svg"
   xmlns="http://www.w3.org/2000/svg"
   xmlns:sodipodi="http://sodipodi.sourceforge.net/DTD/sodipodi-0.dtd"
   xmlns:inkscape="http://www.inkscape.org/namespaces/inkscape"
   width="64"
   height="84.000015"
   viewBox="0 0 16.933333 22.225005"
   version="1.1"
   id="svg8"
   inkscape:version="0.92.4 5da689c313, 2019-01-14"
   sodipodi:docname="icon.svg">
  <defs
     id="defs2" />
  <sodipodi:namedview
     id="base"
     pagecolor="#ffffff"
     bordercolor="#666666"
     borderopacity="1.0"
     inkscape:pageopacity="0.0"
     inkscape:pageshadow="2"
     inkscape:zoom="8"
     inkscape:cx="28.815164"
     inkscape:cy="47.771459"
     inkscape:document-units="mm"
     inkscape:current-layer="layer1"
     showgrid="true"
     units="px"
     inkscape:window-width="1920"
     inkscape:window-height="997"
     inkscape:window-x="0"
     inkscape:window-y="0"
     inkscape:window-maximized="1"
     inkscape:snap-bbox="true"
     inkscape:snap-bbox-midpoints="false"
     inkscape:bbox-nodes="true"
     inkscape:snap-nodes="false"
     inkscape:snap-others="false"
     inkscape:snap-global="true"
     fit-margin-top="0"
     fit-margin-left="0"
     fit-margin-right="0"
     fit-margin-bottom="0">
    <inkscape:grid
       type="xygrid"
       id="grid4504"
       originx="-4.7625"
       originy="-2.1166668" />
  </sodipodi:namedview>
  <metadata
     id="metadata5">
    <rdf:RDF>
      <cc:Work
         rdf:about="">
        <dc:format>image/svg+xml</dc:format>
        <dc:type
           rdf:resource="http://purl.org/dc/dcmitype/StillImage" />
        <dc:title></dc:title>
      </cc:Work>
    </rdf:RDF>
  </metadata>
  <g
     inkscape:label="Livello 1"
     inkscape:groupmode="layer"
     id="layer1"
     transform="translate(-4.7625001,-272.65831)">
    <g
       id="g4512"
       transform="translate(-2.6458333)"
       style="fill:#ffffff;fill-opacity:1">
      <path
         sodipodi:nodetypes="cccccc"
         inkscape:connector-curvature="0"
         id="path4506"
         d="m 7.9375,294.35415 v -21.16667 h 10.583334 l 5.291666,5.29167 v 15.875 z"
         style="fill:#ffffff;fill-opacity:1;stroke:#ff3800;stroke-width:1.05833328;stroke-linecap:round;stroke-linejoin:round;stroke-miterlimit:4;stroke-dasharray:none;stroke-opacity:1" />
      <path
         sodipodi:nodetypes="cccc"
         inkscape:connector-curvature="0"
         id="path4508"
         d="m 18.520834,273.18748 5.291666,5.29167 h -5.291666 z"
         style="fill:#ff3800;fill-opacity:1;stroke:#ff3800;stroke-width:1.05833328;stroke-linecap:round;stroke-linejoin:round;stroke-miterlimit:4;stroke-dasharray:none;stroke-opacity:1" />
    </g>
    <g
       id="g4520"
       transform="matrix(-0.47619177,0.49999992,0.47619177,0.49999992,-117.17547,139.90106)"
       style="fill:#2f302f;fill-opacity:1;stroke:none">
      <path
         sodipodi:nodetypes="ccccc"
         inkscape:connector-curvature="0"
         id="path4516"
         d="m 7.9375,274.5104 v 21.16667 h 2.645833 V 274.5104 Z"
         style="fill:#2f302f;fill-opacity:1;stroke:none;stroke-width:0.26458332px;stroke-linecap:butt;stroke-linejoin:miter;stroke-opacity:1" />
      <path
         sodipodi:nodetypes="ccccccc"
         inkscape:connector-curvature="0"
         id="path4514"
         d="m 2.6458333,278.47915 v -1.32292 c 2.0146377,-0.30282 3.1092047,-0.75641 4.340037,-2.70234 l 4.9203797,0.0566 h 2.645833 v 3.96875 z"
         style="fill:#2f302f;fill-opacity:1;stroke:none;stroke-width:0.26458332px;stroke-linecap:butt;stroke-linejoin:miter;stroke-opacity:1" />
    </g>
    <path
       id="path4762-9"
       style="fill:#5c5d5d;fill-opacity:1;stroke:none;stroke-width:0.21587147px;stroke-linecap:butt;stroke-linejoin:miter;stroke-opacity:1"
       d="m 12.24093,289.80232 0.428537,1.85512 -1.373797,1.37379 H 9.7692332 l 1.5264398,-1.52645 -0.457933,-1.37378 -1.3737969,-0.45794 -1.5264392,1.52643 -3.9e-6,-1.52643 1.3737975,-1.37379 1.5264445,0.30529 0.493012,0.10956 4.317865,-4.15326 -0.536838,-2.06208 1.373798,-1.3738 h 1.526437 l -1.526439,1.52645 0.457933,1.37378 1.373797,0.45794 1.526438,-1.52643 5e-6,1.52643 -1.373797,1.37381 -1.911157,-0.3725 z"
       inkscape:connector-curvature="0"
       sodipodi:nodetypes="cccccccccccccccccccccccc" />
  </g>
</svg>
